<svg width="16" height="16" viewBox="0 0 16 16" fill="none" xmlns="http://www.w3.org/2000/svg">
<g clip-path="url(#clip0_1546:34883)">
<path d="M10.9993 6.66667H4.99935C4.81535 6.66667 4.66602 6.51733 4.66602 6.33333V0.333333C4.66602 0.149333 4.81535 0 4.99935 0H10.9993C11.1833 0 11.3327 0.149333 11.3327 0.333333V6.33333C11.3327 6.51733 11.1833 6.66667 10.9993 6.66667ZM5.33268 6H10.666V0.666667H5.33268V6Z" fill="#AF051F"/>
<path d="M8.99934 2.66667H6.99935C6.81535 2.66667 6.66602 2.51733 6.66602 2.33333V0.333333C6.66602 0.149333 6.81535 0 6.99935 0H8.99934C9.18334 0 9.33267 0.149333 9.33267 0.333333V2.33333C9.33267 2.51733 9.18334 2.66667 8.99934 2.66667ZM7.33268 2H8.66601V0.666667H7.33268V2Z" fill="#AF051F"/>
<path d="M8.00065 12.6667H1.66732C1.48332 12.6667 1.33398 12.5173 1.33398 12.3333V6.33333C1.33398 6.14933 1.48332 6 1.66732 6H8.00065C8.18465 6 8.33398 6.14933 8.33398 6.33333V12.3333C8.33398 12.5173 8.18465 12.6667 8.00065 12.6667ZM2.00065 12H7.66732V6.66667H2.00065V12Z" fill="#AF051F"/>
<path d="M5.66731 8.66666H3.66732C3.48332 8.66666 3.33398 8.51733 3.33398 8.33333V6.33333C3.33398 6.14933 3.48332 6 3.66732 6H5.66731C5.85131 6 6.00064 6.14933 6.00064 6.33333V8.33333C6.00064 8.51733 5.85131 8.66666 5.66731 8.66666ZM4.00065 7.99999H5.33398V6.66666H4.00065V7.99999Z" fill="#AF051F"/>
<path d="M14.3327 12.6667H7.99935C7.81535 12.6667 7.66602 12.5173 7.66602 12.3333V6.33333C7.66602 6.14933 7.81535 6 7.99935 6H14.3327C14.5167 6 14.666 6.14933 14.666 6.33333V12.3333C14.666 12.5173 14.5167 12.6667 14.3327 12.6667ZM8.33268 12H13.9993V6.66667H8.33268V12Z" fill="#AF051F"/>
<path d="M12.3333 8.66666H10.3333C10.1493 8.66666 10 8.51733 10 8.33333V6.33333C10 6.14933 10.1493 6 10.3333 6H12.3333C12.5173 6 12.6667 6.14933 12.6667 6.33333V8.33333C12.6667 8.51733 12.5173 8.66666 12.3333 8.66666ZM10.6667 7.99999H12V6.66666H10.6667V7.99999Z" fill="#AF051F"/>
<path d="M15.6667 16H13C12.816 16 12.6667 15.8507 12.6667 15.6667V14.6667H10V15.6667C10 15.8507 9.85067 16 9.66667 16H6.33333C6.14933 16 6 15.8507 6 15.6667V14.6667H3.33333V15.6667C3.33333 15.8507 3.184 16 3 16H0.333333C0.149333 16 0 15.8507 0 15.6667V12.3333C0 12.1493 0.149333 12 0.333333 12H15.6667C15.8507 12 16 12.1493 16 12.3333V15.6667C16 15.8507 15.8507 16 15.6667 16ZM13.3333 15.3333H15.3333V12.6667H0.666667V15.3333H2.66667V14.3333C2.66667 14.1493 2.816 14 3 14H6.33333C6.51733 14 6.66667 14.1493 6.66667 14.3333V15.3333H9.33333V14.3333C9.33333 14.1493 9.48267 14 9.66667 14H13C13.184 14 13.3333 14.1493 13.3333 14.3333V15.3333Z" fill="#AF051F"/>
</g>
<defs>
<clipPath id="clip0_1546:34883">
<rect width="16" height="16" fill="white"/>
</clipPath>
</defs>
</svg>
