<svg width="933" height="252" viewBox="0 0 933 252" fill="none" xmlns="http://www.w3.org/2000/svg">
<g clip-path="url(#clip0_1661_9521)">
<path d="M54.1406 120.41H45.4395V62.71H15.3369V120.41H6.63574V54.9756H54.1406V120.41ZM108.765 74.707C108.765 77.5488 108.252 80.2441 107.227 82.793C106.23 85.3125 104.839 87.4658 103.052 89.2529C100.796 91.4795 98.1445 93.1641 95.0977 94.3066C92.0508 95.4492 88.1982 96.0205 83.54 96.0205H76.1572V120.41H67.4561V54.9756H83.8916C87.7588 54.9756 91.0547 55.2979 93.7793 55.9424C96.5039 56.5869 98.9062 57.627 100.986 59.0625C103.418 60.7324 105.322 62.8564 106.699 65.4346C108.076 67.9834 108.765 71.0742 108.765 74.707ZM99.7119 74.9268C99.7119 72.6709 99.3164 70.708 98.5254 69.0381C97.7637 67.3682 96.5918 66.0059 95.0098 64.9512C93.6328 64.043 92.0215 63.3984 90.1758 63.0176C88.3594 62.6367 86.0889 62.4463 83.3643 62.4463H76.1572V88.5938H82.0898C85.6055 88.5938 88.4473 88.3154 90.6152 87.7588C92.7832 87.1729 94.585 86.1475 96.0205 84.6826C97.3096 83.3643 98.2471 81.9287 98.833 80.376C99.4189 78.8232 99.7119 77.0068 99.7119 74.9268ZM163.389 62.4902C165.879 65.3613 167.812 68.9209 169.189 73.1689C170.566 77.417 171.255 82.2656 171.255 87.7148C171.255 93.0176 170.581 97.8076 169.233 102.085C167.886 106.362 165.938 109.951 163.389 112.852C160.723 115.898 157.603 118.154 154.028 119.619C150.483 121.055 146.572 121.772 142.295 121.772C137.871 121.772 133.887 121.025 130.342 119.531C126.797 118.037 123.75 115.811 121.201 112.852C118.682 109.951 116.748 106.377 115.4 102.129C114.053 97.8809 113.379 93.0762 113.379 87.7148C113.379 82.207 114.053 77.373 115.4 73.2129C116.777 69.0527 118.726 65.4785 121.245 62.4902C123.765 59.5898 126.797 57.3926 130.342 55.8984C133.916 54.375 137.9 53.6133 142.295 53.6133C146.748 53.6133 150.762 54.3896 154.336 55.9424C157.91 57.4951 160.928 59.6777 163.389 62.4902ZM162.202 87.7148C162.202 83.3789 161.733 79.541 160.796 76.2012C159.858 72.8613 158.54 70.0928 156.841 67.8955C155.112 65.6396 153.018 63.9551 150.557 62.8418C148.125 61.6992 145.386 61.1279 142.339 61.1279C139.175 61.1279 136.406 61.6846 134.033 62.7979C131.689 63.8818 129.609 65.5811 127.793 67.8955C126.064 70.1221 124.731 72.9199 123.794 76.2891C122.886 79.6582 122.432 83.4668 122.432 87.7148C122.432 96.2988 124.233 102.876 127.837 107.446C131.44 111.987 136.274 114.258 142.339 114.258C148.403 114.258 153.223 111.987 156.797 107.446C160.4 102.876 162.202 96.2988 162.202 87.7148Z" fill="#b54949"/>
<path d="M864.284 62.1172H856.932V53.3501H864.284V62.1172ZM892.554 33.9702H892.246C891.815 33.8472 891.354 33.7754 890.862 33.7549C890.39 33.7139 889.816 33.6934 889.139 33.6934C887.581 33.6934 886.032 34.0317 884.494 34.7085C882.956 35.3853 881.5 36.3901 880.126 37.7231V62.1172H874.343V27.7563H880.126V32.8628C882.238 30.9966 884.074 29.6841 885.632 28.9253C887.211 28.146 888.739 27.7563 890.216 27.7563C890.811 27.7563 891.251 27.7769 891.539 27.8179C891.846 27.8384 892.185 27.8794 892.554 27.9409V33.9702ZM923.808 62.1172H918.024V58.3027C916.24 59.8613 914.548 61.0508 912.949 61.8711C911.349 62.6709 909.565 63.0708 907.596 63.0708C906.099 63.0708 904.684 62.8247 903.351 62.3325C902.039 61.8403 900.89 61.061 899.906 59.9946C898.921 58.9282 898.152 57.585 897.599 55.9648C897.065 54.3447 896.799 52.376 896.799 50.0586V27.7563H902.582V47.3208C902.582 49.146 902.644 50.6636 902.767 51.8735C902.91 53.063 903.218 54.1089 903.689 55.0112C904.161 55.8931 904.797 56.5391 905.597 56.9492C906.417 57.3594 907.586 57.5645 909.104 57.5645C910.519 57.5645 912.026 57.1646 913.625 56.3647C915.225 55.5649 916.691 54.5806 918.024 53.4116V27.7563H923.808V62.1172Z" fill="#b54949"/>
<path d="M29.2563 225.053H25.0337V203.603H13.6685V225.053H9.4458V199.964H29.2563V225.053ZM56.4116 211.846C56.4116 216.023 55.4084 219.355 53.4019 221.841C51.4103 224.312 48.8872 225.547 45.8325 225.547C44.5897 225.547 43.4891 225.405 42.5308 225.12C41.5724 224.836 40.5916 224.394 39.5884 223.795V234.307H35.3657V199.964H39.5884V202.592C40.6366 201.648 41.797 200.862 43.0698 200.233C44.3576 199.59 45.7576 199.268 47.27 199.268C50.145 199.268 52.3836 200.406 53.9858 202.682C55.603 204.958 56.4116 208.012 56.4116 211.846ZM52.0542 212.317C52.0542 209.457 51.5975 207.241 50.6841 205.669C49.7707 204.082 48.2882 203.288 46.2368 203.288C45.0389 203.288 43.8784 203.558 42.7554 204.097C41.6473 204.621 40.5916 205.302 39.5884 206.141V220.358C40.6965 220.897 41.6398 221.264 42.4185 221.459C43.2121 221.654 44.118 221.751 45.1362 221.751C47.3224 221.751 49.022 220.95 50.2349 219.348C51.4478 217.745 52.0542 215.402 52.0542 212.317ZM81.4331 212.52C81.4331 216.742 80.4149 220.007 78.3784 222.312C76.342 224.604 73.6317 225.749 70.2476 225.749C66.7586 225.749 64.0109 224.566 62.0044 222.2C60.0129 219.819 59.0171 216.592 59.0171 212.52C59.0171 208.327 60.0428 205.07 62.0942 202.749C64.1606 200.428 66.8784 199.268 70.2476 199.268C73.6317 199.268 76.342 200.428 78.3784 202.749C80.4149 205.055 81.4331 208.312 81.4331 212.52ZM77.0757 212.52C77.0757 209.27 76.4842 206.859 75.3013 205.287C74.1183 203.7 72.4338 202.906 70.2476 202.906C68.0464 202.906 66.3468 203.7 65.1489 205.287C63.966 206.859 63.3745 209.27 63.3745 212.52C63.3745 215.664 63.966 218.052 65.1489 219.685C66.3468 221.302 68.0464 222.11 70.2476 222.11C72.4188 222.11 74.0959 221.317 75.2788 219.729C76.4767 218.127 77.0757 215.724 77.0757 212.52ZM116.27 211.846C116.27 214.077 115.993 216.053 115.439 217.775C114.9 219.482 114.181 220.89 113.283 221.998C112.369 223.121 111.336 223.975 110.183 224.559C109.03 225.128 107.825 225.412 106.567 225.412C105.624 225.412 104.792 225.232 104.074 224.873C103.37 224.514 102.771 224.207 102.277 223.952V234.307H98.0991V223.952C97.2157 224.416 96.5119 224.776 95.9878 225.03C95.4637 225.285 94.6027 225.412 93.4048 225.412C90.5897 225.412 88.3361 224.274 86.644 221.998C84.952 219.707 84.106 216.57 84.106 212.587C84.106 210.491 84.3755 208.619 84.9146 206.972C85.4536 205.325 86.1948 203.924 87.1382 202.771C88.0067 201.708 89.0099 200.885 90.1479 200.301C91.3009 199.702 92.4989 199.402 93.7417 199.402C94.6252 199.402 95.4188 199.56 96.1226 199.874C96.8413 200.174 97.5002 200.518 98.0991 200.907V190.104H102.277V200.907C102.936 200.503 103.692 200.151 104.545 199.852C105.399 199.552 106.275 199.402 107.173 199.402C109.988 199.402 112.205 200.533 113.822 202.794C115.454 205.04 116.27 208.057 116.27 211.846ZM111.935 212.317C111.935 209.457 111.448 207.196 110.475 205.534C109.517 203.872 108.094 203.041 106.208 203.041C105.429 203.041 104.74 203.146 104.141 203.355C103.557 203.55 102.936 203.767 102.277 204.007V220.74C102.936 221.055 103.467 221.309 103.872 221.504C104.291 221.699 104.897 221.796 105.691 221.796C107.638 221.796 109.165 220.995 110.273 219.393C111.381 217.79 111.935 215.432 111.935 212.317ZM98.0991 220.74V204.007C97.5601 203.752 97.021 203.528 96.4819 203.333C95.9429 203.138 95.3439 203.041 94.6851 203.041C92.7684 203.041 91.2485 203.797 90.1255 205.31C89.0024 206.822 88.4409 209.18 88.4409 212.385C88.4409 215.305 88.9425 217.603 89.9458 219.28C90.964 220.957 92.4165 221.796 94.3032 221.796C95.0519 221.796 95.7257 221.684 96.3247 221.459C96.9237 221.234 97.5151 220.995 98.0991 220.74ZM131.611 225.637C127.613 225.637 124.506 224.514 122.29 222.268C120.088 220.007 118.988 216.802 118.988 212.654C118.988 208.566 120.058 205.317 122.2 202.906C124.341 200.48 127.141 199.268 130.6 199.268C132.157 199.268 133.535 199.492 134.733 199.941C135.931 200.391 136.979 201.094 137.877 202.053C138.776 203.011 139.465 204.187 139.944 205.579C140.423 206.957 140.663 208.649 140.663 210.655V212.946H123.278C123.278 215.866 124.012 218.097 125.479 219.64C126.946 221.182 128.975 221.953 131.566 221.953C132.494 221.953 133.4 221.848 134.284 221.639C135.182 221.429 135.991 221.16 136.709 220.83C137.473 220.486 138.117 220.156 138.641 219.842C139.165 219.512 139.599 219.205 139.944 218.921H140.191V223.525C139.697 223.72 139.083 223.967 138.349 224.267C137.615 224.551 136.957 224.776 136.373 224.94C135.549 225.165 134.8 225.337 134.126 225.457C133.468 225.577 132.629 225.637 131.611 225.637ZM136.552 209.712C136.522 208.574 136.388 207.593 136.148 206.77C135.908 205.946 135.564 205.25 135.115 204.681C134.621 204.052 133.984 203.573 133.206 203.243C132.442 202.914 131.491 202.749 130.353 202.749C129.23 202.749 128.272 202.921 127.478 203.266C126.699 203.595 125.988 204.082 125.344 204.726C124.715 205.384 124.236 206.118 123.907 206.927C123.577 207.72 123.368 208.649 123.278 209.712H136.552ZM154.903 225.614C153.181 225.614 151.601 225.352 150.164 224.828C148.726 224.289 147.491 223.48 146.458 222.402C145.424 221.324 144.623 219.969 144.054 218.337C143.485 216.69 143.201 214.758 143.201 212.542C143.201 210.341 143.493 208.439 144.077 206.837C144.676 205.235 145.469 203.887 146.458 202.794C147.446 201.701 148.674 200.862 150.141 200.278C151.624 199.679 153.211 199.38 154.903 199.38C156.28 199.38 157.606 199.575 158.878 199.964C160.166 200.353 161.312 200.802 162.315 201.312V206.051H162.068C161.768 205.796 161.379 205.504 160.9 205.175C160.436 204.845 159.867 204.508 159.193 204.164C158.609 203.865 157.92 203.603 157.126 203.378C156.333 203.153 155.569 203.041 154.835 203.041C152.649 203.041 150.89 203.872 149.557 205.534C148.239 207.181 147.581 209.517 147.581 212.542C147.581 215.507 148.217 217.82 149.49 219.482C150.778 221.13 152.559 221.953 154.835 221.953C156.213 221.953 157.523 221.669 158.766 221.1C160.009 220.531 161.11 219.797 162.068 218.898H162.315V223.638C161.896 223.832 161.372 224.072 160.743 224.356C160.114 224.626 159.545 224.828 159.036 224.963C158.317 225.173 157.673 225.33 157.104 225.435C156.535 225.554 155.801 225.614 154.903 225.614ZM176.151 225.614C174.429 225.614 172.849 225.352 171.412 224.828C169.974 224.289 168.739 223.48 167.706 222.402C166.672 221.324 165.871 219.969 165.302 218.337C164.733 216.69 164.449 214.758 164.449 212.542C164.449 210.341 164.741 208.439 165.325 206.837C165.924 205.235 166.717 203.887 167.706 202.794C168.694 201.701 169.922 200.862 171.389 200.278C172.872 199.679 174.459 199.38 176.151 199.38C177.528 199.38 178.854 199.575 180.126 199.964C181.414 200.353 182.56 200.802 183.563 201.312V206.051H183.316C183.016 205.796 182.627 205.504 182.148 205.175C181.684 204.845 181.115 204.508 180.441 204.164C179.857 203.865 179.168 203.603 178.375 203.378C177.581 203.153 176.817 203.041 176.083 203.041C173.897 203.041 172.138 203.872 170.805 205.534C169.487 207.181 168.829 209.517 168.829 212.542C168.829 215.507 169.465 217.82 170.738 219.482C172.026 221.13 173.807 221.953 176.083 221.953C177.461 221.953 178.771 221.669 180.014 221.1C181.257 220.531 182.358 219.797 183.316 218.898H183.563V223.638C183.144 223.832 182.62 224.072 181.991 224.356C181.362 224.626 180.793 224.828 180.284 224.963C179.565 225.173 178.921 225.33 178.352 225.435C177.783 225.554 177.049 225.614 176.151 225.614ZM207.237 225.053H203.059V206.343L191.245 225.053H187.426V199.964H191.604V218.382L203.284 199.964H207.237V225.053ZM233.988 212.52C233.988 216.742 232.97 220.007 230.933 222.312C228.897 224.604 226.186 225.749 222.802 225.749C219.313 225.749 216.566 224.566 214.559 222.2C212.568 219.819 211.572 216.592 211.572 212.52C211.572 208.327 212.597 205.07 214.649 202.749C216.715 200.428 219.433 199.268 222.802 199.268C226.186 199.268 228.897 200.428 230.933 202.749C232.97 205.055 233.988 208.312 233.988 212.52ZM229.63 212.52C229.63 209.27 229.039 206.859 227.856 205.287C226.673 203.7 224.988 202.906 222.802 202.906C220.601 202.906 218.902 203.7 217.704 205.287C216.521 206.859 215.929 209.27 215.929 212.52C215.929 215.664 216.521 218.052 217.704 219.685C218.902 221.302 220.601 222.11 222.802 222.11C224.973 222.11 226.651 221.317 227.833 219.729C229.031 218.127 229.63 215.724 229.63 212.52ZM258.133 225.053H253.911V213.755H242.545V225.053H238.323V199.964H242.545V210.116H253.911V199.964H258.133V225.053ZM278.258 218.876V211.913C277.255 212.003 275.982 212.13 274.44 212.295C272.913 212.445 271.677 212.662 270.734 212.946C269.611 213.291 268.682 213.822 267.949 214.541C267.215 215.245 266.848 216.233 266.848 217.506C266.848 218.943 267.252 220.029 268.061 220.763C268.87 221.496 270.053 221.863 271.61 221.863C272.943 221.863 274.148 221.579 275.226 221.01C276.304 220.426 277.315 219.715 278.258 218.876ZM278.258 222.38C277.914 222.634 277.45 222.994 276.866 223.458C276.297 223.907 275.743 224.267 275.204 224.536C274.455 224.925 273.729 225.225 273.025 225.435C272.336 225.644 271.363 225.749 270.105 225.749C269.072 225.749 268.091 225.554 267.163 225.165C266.234 224.776 265.418 224.229 264.714 223.525C264.041 222.837 263.501 221.991 263.097 220.987C262.693 219.969 262.491 218.898 262.491 217.775C262.491 216.038 262.858 214.563 263.591 213.351C264.325 212.123 265.486 211.149 267.073 210.431C268.48 209.787 270.142 209.345 272.059 209.105C273.976 208.851 276.042 208.664 278.258 208.544V207.735C278.258 206.747 278.109 205.953 277.809 205.354C277.51 204.741 277.09 204.269 276.551 203.939C276.012 203.595 275.353 203.37 274.575 203.266C273.796 203.146 272.995 203.086 272.171 203.086C271.198 203.086 270.053 203.236 268.735 203.535C267.417 203.82 266.099 204.239 264.782 204.793H264.535V200.503C265.313 200.278 266.429 200.031 267.881 199.762C269.334 199.492 270.771 199.357 272.194 199.357C273.916 199.357 275.368 199.492 276.551 199.762C277.734 200.031 278.797 200.518 279.741 201.222C280.654 201.91 281.335 202.801 281.785 203.895C282.234 204.988 282.458 206.32 282.458 207.893V225.053H278.258V222.38ZM307.839 225.053H303.617V203.513H294.992C294.947 204.756 294.902 205.953 294.857 207.106C294.812 208.244 294.767 209.278 294.722 210.206C294.632 212.557 294.475 214.526 294.25 216.113C294.041 217.701 293.771 218.973 293.442 219.932C293.112 220.92 292.746 221.691 292.341 222.245C291.952 222.799 291.51 223.301 291.016 223.75C290.507 224.199 289.96 224.536 289.376 224.761C288.792 224.985 288.134 225.098 287.4 225.098C287.16 225.098 286.853 225.09 286.479 225.075C286.105 225.06 285.843 225.053 285.693 225.053V221.369H285.917C286.022 221.369 286.127 221.377 286.232 221.392C286.352 221.407 286.486 221.414 286.636 221.414C286.996 221.414 287.347 221.362 287.692 221.257C288.036 221.152 288.343 220.957 288.613 220.673C289.361 219.939 289.908 218.659 290.252 216.832C290.597 214.99 290.844 212.422 290.994 209.128C291.054 207.9 291.106 206.448 291.151 204.771C291.211 203.093 291.263 201.491 291.308 199.964H307.839V225.053ZM332.973 217.281C332.973 218.494 332.726 219.595 332.232 220.583C331.753 221.571 331.094 222.372 330.255 222.986C329.267 223.735 328.211 224.267 327.088 224.581C325.965 224.896 324.52 225.053 322.753 225.053H313.971V199.964H318.194V209.734H322.866C324.752 209.734 326.212 209.832 327.246 210.026C328.294 210.221 329.334 210.7 330.368 211.464C331.236 212.108 331.888 212.931 332.322 213.935C332.756 214.938 332.973 216.053 332.973 217.281ZM328.616 217.349C328.616 216.585 328.481 215.919 328.211 215.35C327.957 214.766 327.53 214.294 326.931 213.935C326.302 213.56 325.583 213.336 324.775 213.261C323.981 213.186 322.836 213.148 321.338 213.148H318.194V221.684H321.249C322.746 221.684 323.906 221.624 324.73 221.504C325.554 221.369 326.265 221.122 326.864 220.763C327.478 220.373 327.919 219.917 328.189 219.393C328.473 218.854 328.616 218.172 328.616 217.349ZM356.827 225.053H352.604V213.755H341.239V225.053H337.016V199.964H341.239V210.116H352.604V199.964H356.827V225.053ZM376.952 218.876V211.913C375.948 212.003 374.676 212.13 373.133 212.295C371.606 212.445 370.371 212.662 369.427 212.946C368.304 213.291 367.376 213.822 366.642 214.541C365.908 215.245 365.542 216.233 365.542 217.506C365.542 218.943 365.946 220.029 366.754 220.763C367.563 221.496 368.746 221.863 370.303 221.863C371.636 221.863 372.841 221.579 373.919 221.01C374.998 220.426 376.008 219.715 376.952 218.876ZM376.952 222.38C376.607 222.634 376.143 222.994 375.559 223.458C374.99 223.907 374.436 224.267 373.897 224.536C373.148 224.925 372.422 225.225 371.718 225.435C371.029 225.644 370.056 225.749 368.798 225.749C367.765 225.749 366.784 225.554 365.856 225.165C364.928 224.776 364.111 224.229 363.408 223.525C362.734 222.837 362.195 221.991 361.791 220.987C361.386 219.969 361.184 218.898 361.184 217.775C361.184 216.038 361.551 214.563 362.285 213.351C363.018 212.123 364.179 211.149 365.766 210.431C367.174 209.787 368.836 209.345 370.752 209.105C372.669 208.851 374.736 208.664 376.952 208.544V207.735C376.952 206.747 376.802 205.953 376.502 205.354C376.203 204.741 375.784 204.269 375.245 203.939C374.706 203.595 374.047 203.37 373.268 203.266C372.489 203.146 371.688 203.086 370.865 203.086C369.891 203.086 368.746 203.236 367.428 203.535C366.111 203.82 364.793 204.239 363.475 204.793H363.228V200.503C364.007 200.278 365.122 200.031 366.575 199.762C368.027 199.492 369.465 199.357 370.887 199.357C372.609 199.357 374.062 199.492 375.245 199.762C376.428 200.031 377.491 200.518 378.434 201.222C379.347 201.91 380.029 202.801 380.478 203.895C380.927 204.988 381.152 206.32 381.152 207.893V225.053H376.952V222.38ZM405.275 225.053H401.052V215.103H396.875L389.44 225.053H384.521L392.584 214.721C390.503 214.107 388.976 213.193 388.002 211.98C387.044 210.768 386.565 209.143 386.565 207.106C386.565 205.864 386.834 204.778 387.374 203.85C387.928 202.906 388.669 202.113 389.597 201.469C390.346 200.96 391.289 200.585 392.427 200.346C393.565 200.091 394.838 199.964 396.246 199.964H405.275V225.053ZM401.052 211.778V203.333H396.47C395.497 203.333 394.726 203.385 394.157 203.49C393.603 203.595 393.064 203.797 392.54 204.097C392 204.426 391.589 204.875 391.304 205.444C391.035 205.998 390.9 206.597 390.9 207.241C390.9 208.065 390.99 208.739 391.169 209.263C391.364 209.772 391.708 210.243 392.203 210.678C392.727 211.127 393.363 211.426 394.112 211.576C394.875 211.711 395.707 211.778 396.605 211.778H401.052ZM445.592 225.053H441.37V203.603H430.004V225.053H425.782V199.964H445.592V225.053ZM472.748 211.846C472.748 216.023 471.744 219.355 469.738 221.841C467.746 224.312 465.223 225.547 462.168 225.547C460.926 225.547 459.825 225.405 458.867 225.12C457.908 224.836 456.928 224.394 455.924 223.795V234.307H451.702V199.964H455.924V202.592C456.972 201.648 458.133 200.862 459.406 200.233C460.694 199.59 462.094 199.268 463.606 199.268C466.481 199.268 468.72 200.406 470.322 202.682C471.939 204.958 472.748 208.012 472.748 211.846ZM468.39 212.317C468.39 209.457 467.933 207.241 467.02 205.669C466.107 204.082 464.624 203.288 462.573 203.288C461.375 203.288 460.214 203.558 459.091 204.097C457.983 204.621 456.928 205.302 455.924 206.141V220.358C457.032 220.897 457.976 221.264 458.754 221.459C459.548 221.654 460.454 221.751 461.472 221.751C463.658 221.751 465.358 220.95 466.571 219.348C467.784 217.745 468.39 215.402 468.39 212.317ZM497.769 212.52C497.769 216.742 496.751 220.007 494.714 222.312C492.678 224.604 489.968 225.749 486.583 225.749C483.095 225.749 480.347 224.566 478.34 222.2C476.349 219.819 475.353 216.592 475.353 212.52C475.353 208.327 476.379 205.07 478.43 202.749C480.497 200.428 483.214 199.268 486.583 199.268C489.968 199.268 492.678 200.428 494.714 202.749C496.751 205.055 497.769 208.312 497.769 212.52ZM493.412 212.52C493.412 209.27 492.82 206.859 491.637 205.287C490.454 203.7 488.77 202.906 486.583 202.906C484.382 202.906 482.683 203.7 481.485 205.287C480.302 206.859 479.71 209.27 479.71 212.52C479.71 215.664 480.302 218.052 481.485 219.685C482.683 221.302 484.382 222.11 486.583 222.11C488.755 222.11 490.432 221.317 491.615 219.729C492.813 218.127 493.412 215.724 493.412 212.52ZM523.622 231.072H519.691V224.985H503.16V231.072H499.229V221.459H500.891C502.314 219.123 503.474 216.076 504.373 212.317C505.286 208.544 505.743 204.426 505.743 199.964H521.128V221.459H523.622V231.072ZM516.906 221.459V203.513H509.718C509.524 207.256 509.007 210.678 508.168 213.777C507.345 216.862 506.304 219.423 505.046 221.459H516.906ZM541.815 218.876V211.913C540.812 212.003 539.539 212.13 537.997 212.295C536.469 212.445 535.234 212.662 534.291 212.946C533.167 213.291 532.239 213.822 531.505 214.541C530.772 215.245 530.405 216.233 530.405 217.506C530.405 218.943 530.809 220.029 531.618 220.763C532.426 221.496 533.609 221.863 535.167 221.863C536.499 221.863 537.705 221.579 538.783 221.01C539.861 220.426 540.872 219.715 541.815 218.876ZM541.815 222.38C541.471 222.634 541.006 222.994 540.422 223.458C539.853 223.907 539.299 224.267 538.76 224.536C538.012 224.925 537.285 225.225 536.582 225.435C535.893 225.644 534.919 225.749 533.662 225.749C532.628 225.749 531.648 225.554 530.719 225.165C529.791 224.776 528.975 224.229 528.271 223.525C527.597 222.837 527.058 221.991 526.654 220.987C526.25 219.969 526.047 218.898 526.047 217.775C526.047 216.038 526.414 214.563 527.148 213.351C527.882 212.123 529.042 211.149 530.629 210.431C532.037 209.787 533.699 209.345 535.616 209.105C537.532 208.851 539.599 208.664 541.815 208.544V207.735C541.815 206.747 541.665 205.953 541.366 205.354C541.066 204.741 540.647 204.269 540.108 203.939C539.569 203.595 538.91 203.37 538.131 203.266C537.353 203.146 536.552 203.086 535.728 203.086C534.755 203.086 533.609 203.236 532.292 203.535C530.974 203.82 529.656 204.239 528.338 204.793H528.091V200.503C528.87 200.278 529.986 200.031 531.438 199.762C532.89 199.492 534.328 199.357 535.75 199.357C537.472 199.357 538.925 199.492 540.108 199.762C541.291 200.031 542.354 200.518 543.297 201.222C544.211 201.91 544.892 202.801 545.341 203.895C545.791 204.988 546.015 206.32 546.015 207.893V225.053H541.815V222.38ZM582.424 225.053H577.326L569.442 213.508H567.802V225.053H563.625V213.508H561.985L553.966 225.053H549.092L558.548 211.913C557.815 211.524 557.163 210.962 556.594 210.229C556.025 209.48 555.516 208.402 555.067 206.994C554.663 205.721 554.183 204.838 553.629 204.344C553.075 203.85 552.169 203.603 550.912 203.603H549.946V199.964H551.091C552.933 199.964 554.445 200.338 555.628 201.087C556.826 201.836 557.762 203.146 558.436 205.018C558.571 205.407 558.736 205.856 558.93 206.365C559.14 206.859 559.319 207.279 559.469 207.623C559.963 208.761 560.54 209.585 561.199 210.094C561.858 210.603 562.666 210.887 563.625 210.947V199.964H567.802V210.947C568.761 210.872 569.577 210.58 570.25 210.071C570.939 209.562 571.523 208.746 572.002 207.623C572.167 207.249 572.347 206.814 572.542 206.32C572.751 205.826 572.916 205.392 573.036 205.018C573.694 203.176 574.608 201.873 575.776 201.109C576.944 200.346 578.464 199.964 580.335 199.964H581.481V203.603H580.515C579.332 203.603 578.441 203.85 577.842 204.344C577.258 204.823 576.764 205.706 576.36 206.994C575.941 208.297 575.446 209.323 574.877 210.071C574.308 210.82 573.68 211.389 572.991 211.778L582.424 225.053ZM599.584 218.876V211.913C598.581 212.003 597.308 212.13 595.766 212.295C594.239 212.445 593.003 212.662 592.06 212.946C590.937 213.291 590.009 213.822 589.275 214.541C588.541 215.245 588.174 216.233 588.174 217.506C588.174 218.943 588.579 220.029 589.387 220.763C590.196 221.496 591.379 221.863 592.936 221.863C594.269 221.863 595.474 221.579 596.552 221.01C597.63 220.426 598.641 219.715 599.584 218.876ZM599.584 222.38C599.24 222.634 598.776 222.994 598.192 223.458C597.623 223.907 597.069 224.267 596.53 224.536C595.781 224.925 595.055 225.225 594.351 225.435C593.662 225.644 592.689 225.749 591.431 225.749C590.398 225.749 589.417 225.554 588.489 225.165C587.56 224.776 586.744 224.229 586.041 223.525C585.367 222.837 584.828 221.991 584.423 220.987C584.019 219.969 583.817 218.898 583.817 217.775C583.817 216.038 584.184 214.563 584.917 213.351C585.651 212.123 586.812 211.149 588.399 210.431C589.806 209.787 591.469 209.345 593.385 209.105C595.302 208.851 597.368 208.664 599.584 208.544V207.735C599.584 206.747 599.435 205.953 599.135 205.354C598.836 204.741 598.417 204.269 597.877 203.939C597.338 203.595 596.68 203.37 595.901 203.266C595.122 203.146 594.321 203.086 593.498 203.086C592.524 203.086 591.379 203.236 590.061 203.535C588.743 203.82 587.426 204.239 586.108 204.793H585.861V200.503C586.639 200.278 587.755 200.031 589.208 199.762C590.66 199.492 592.097 199.357 593.52 199.357C595.242 199.357 596.694 199.492 597.877 199.762C599.06 200.031 600.124 200.518 601.067 201.222C601.98 201.91 602.662 202.801 603.111 203.895C603.56 204.988 603.785 206.32 603.785 207.893V225.053H599.584V222.38ZM634.084 225.614C632.362 225.614 630.783 225.352 629.345 224.828C627.908 224.289 626.672 223.48 625.639 222.402C624.606 221.324 623.805 219.969 623.236 218.337C622.667 216.69 622.382 214.758 622.382 212.542C622.382 210.341 622.674 208.439 623.258 206.837C623.857 205.235 624.651 203.887 625.639 202.794C626.627 201.701 627.855 200.862 629.323 200.278C630.805 199.679 632.392 199.38 634.084 199.38C635.462 199.38 636.787 199.575 638.06 199.964C639.348 200.353 640.493 200.802 641.497 201.312V206.051H641.25C640.95 205.796 640.561 205.504 640.082 205.175C639.617 204.845 639.048 204.508 638.375 204.164C637.791 203.865 637.102 203.603 636.308 203.378C635.514 203.153 634.751 203.041 634.017 203.041C631.831 203.041 630.071 203.872 628.739 205.534C627.421 207.181 626.762 209.517 626.762 212.542C626.762 215.507 627.399 217.82 628.671 219.482C629.959 221.13 631.741 221.953 634.017 221.953C635.395 221.953 636.705 221.669 637.948 221.1C639.191 220.531 640.291 219.797 641.25 218.898H641.497V223.638C641.077 223.832 640.553 224.072 639.924 224.356C639.295 224.626 638.726 224.828 638.217 224.963C637.499 225.173 636.855 225.33 636.286 225.435C635.717 225.554 634.983 225.614 634.084 225.614ZM678.063 225.053H661.756V221.639H667.821V199.223H661.756V196.168C664.047 196.168 665.732 195.846 666.81 195.202C667.903 194.543 668.517 193.308 668.652 191.496H672.133V221.639H678.063V225.053ZM700.479 205.354C700.479 203.078 700.269 201.229 699.85 199.807C699.431 198.369 698.854 197.261 698.121 196.482C697.462 195.764 696.795 195.27 696.122 195C695.448 194.73 694.707 194.596 693.898 194.596C692.056 194.596 690.589 195.255 689.496 196.572C688.403 197.89 687.856 199.799 687.856 202.3C687.856 203.707 688.036 204.868 688.395 205.781C688.754 206.695 689.338 207.481 690.147 208.14C690.716 208.604 691.36 208.918 692.079 209.083C692.797 209.233 693.569 209.308 694.392 209.308C695.35 209.308 696.384 209.143 697.492 208.813C698.6 208.469 699.566 208.02 700.389 207.466C700.404 207.241 700.419 206.949 700.434 206.59C700.464 206.215 700.479 205.804 700.479 205.354ZM683.296 202.479C683.296 200.757 683.573 199.185 684.127 197.763C684.696 196.34 685.468 195.112 686.441 194.079C687.369 193.091 688.5 192.32 689.833 191.766C691.18 191.212 692.543 190.935 693.92 190.935C695.463 190.935 696.855 191.197 698.098 191.721C699.356 192.23 700.442 192.971 701.355 193.944C702.508 195.172 703.399 196.782 704.028 198.773C704.672 200.765 704.994 203.281 704.994 206.32C704.994 209.09 704.679 211.718 704.05 214.204C703.436 216.675 702.523 218.726 701.31 220.358C700.022 222.095 698.472 223.421 696.661 224.334C694.864 225.247 692.64 225.704 689.99 225.704C689.391 225.704 688.754 225.667 688.081 225.592C687.407 225.532 686.778 225.412 686.194 225.232V220.942H686.418C686.793 221.152 687.377 221.354 688.17 221.549C688.964 221.743 689.773 221.841 690.596 221.841C693.531 221.841 695.837 220.875 697.514 218.943C699.191 217.012 700.142 214.249 700.367 210.655C699.169 211.464 698.023 212.055 696.93 212.43C695.852 212.804 694.677 212.991 693.404 212.991C692.161 212.991 691.03 212.856 690.012 212.587C688.994 212.317 687.968 211.793 686.935 211.015C685.737 210.101 684.831 208.948 684.217 207.556C683.603 206.148 683.296 204.456 683.296 202.479ZM725.59 205.354C725.59 203.078 725.381 201.229 724.961 199.807C724.542 198.369 723.966 197.261 723.232 196.482C722.573 195.764 721.907 195.27 721.233 195C720.559 194.73 719.818 194.596 719.009 194.596C717.167 194.596 715.7 195.255 714.607 196.572C713.514 197.89 712.967 199.799 712.967 202.3C712.967 203.707 713.147 204.868 713.506 205.781C713.866 206.695 714.45 207.481 715.258 208.14C715.827 208.604 716.471 208.918 717.19 209.083C717.909 209.233 718.68 209.308 719.503 209.308C720.462 209.308 721.495 209.143 722.603 208.813C723.711 208.469 724.677 208.02 725.5 207.466C725.515 207.241 725.53 206.949 725.545 206.59C725.575 206.215 725.59 205.804 725.59 205.354ZM708.408 202.479C708.408 200.757 708.685 199.185 709.239 197.763C709.808 196.34 710.579 195.112 711.552 194.079C712.481 193.091 713.611 192.32 714.944 191.766C716.292 191.212 717.654 190.935 719.032 190.935C720.574 190.935 721.967 191.197 723.209 191.721C724.467 192.23 725.553 192.971 726.466 193.944C727.619 195.172 728.51 196.782 729.139 198.773C729.783 200.765 730.105 203.281 730.105 206.32C730.105 209.09 729.791 211.718 729.162 214.204C728.548 216.675 727.634 218.726 726.421 220.358C725.134 222.095 723.584 223.421 721.772 224.334C719.975 225.247 717.751 225.704 715.101 225.704C714.502 225.704 713.866 225.667 713.192 225.592C712.518 225.532 711.889 225.412 711.305 225.232V220.942H711.53C711.904 221.152 712.488 221.354 713.282 221.549C714.075 221.743 714.884 221.841 715.708 221.841C718.642 221.841 720.948 220.875 722.625 218.943C724.303 217.012 725.253 214.249 725.478 210.655C724.28 211.464 723.135 212.055 722.042 212.43C720.963 212.804 719.788 212.991 718.515 212.991C717.272 212.991 716.142 212.856 715.124 212.587C714.105 212.317 713.08 211.793 712.046 211.015C710.848 210.101 709.943 208.948 709.329 207.556C708.715 206.148 708.408 204.456 708.408 202.479ZM755.621 214.204C755.621 215.926 755.336 217.513 754.767 218.966C754.198 220.418 753.434 221.631 752.476 222.604C751.473 223.638 750.35 224.424 749.107 224.963C747.864 225.487 746.494 225.749 744.997 225.749C743.484 225.749 742.107 225.494 740.864 224.985C739.636 224.476 738.55 223.72 737.607 222.717C736.454 221.504 735.548 219.887 734.889 217.865C734.245 215.829 733.923 213.328 733.923 210.363C733.923 207.458 734.223 204.838 734.822 202.502C735.421 200.151 736.342 198.107 737.584 196.37C738.797 194.678 740.362 193.36 742.279 192.417C744.195 191.459 746.412 190.979 748.927 190.979C749.676 190.979 750.372 191.017 751.016 191.092C751.66 191.167 752.229 191.286 752.723 191.451V195.741H752.521C752.117 195.517 751.533 195.314 750.769 195.135C750.005 194.94 749.189 194.843 748.321 194.843C745.536 194.843 743.282 195.786 741.56 197.673C739.853 199.545 738.842 202.33 738.528 206.028C739.591 205.28 740.684 204.703 741.807 204.299C742.93 203.895 744.158 203.692 745.491 203.692C746.793 203.692 747.931 203.827 748.905 204.097C749.893 204.351 750.919 204.875 751.982 205.669C753.21 206.597 754.123 207.773 754.722 209.195C755.321 210.618 755.621 212.287 755.621 214.204ZM751.061 214.384C751.061 213.006 750.881 211.853 750.522 210.925C750.163 209.996 749.579 209.203 748.77 208.544C748.186 208.065 747.52 207.75 746.771 207.601C746.037 207.451 745.281 207.376 744.502 207.376C743.454 207.376 742.436 207.533 741.448 207.848C740.459 208.162 739.486 208.619 738.528 209.218C738.498 209.547 738.475 209.869 738.46 210.184C738.445 210.483 738.438 210.865 738.438 211.329C738.438 213.65 738.663 215.522 739.112 216.944C739.576 218.367 740.145 219.445 740.819 220.179C741.463 220.882 742.122 221.377 742.795 221.661C743.484 221.946 744.225 222.088 745.019 222.088C746.816 222.088 748.268 221.444 749.376 220.156C750.5 218.868 751.061 216.944 751.061 214.384ZM790.502 203.67H778.778V225.053H774.555V199.964H790.502V203.67ZM800.228 225.053H794.86V218.651H800.228V225.053Z" fill="#90949A"/>
<path d="M262.284 141.529H243.203L211.972 99.5347H204.307V141.529H188.977V50.4458H204.307V90.0757C208.275 90.0213 211.646 89.2059 214.418 87.6294C217.245 85.9985 219.637 82.8727 221.594 78.252C222.192 76.8929 222.844 75.3164 223.551 73.5225C224.312 71.7285 224.91 70.152 225.345 68.793C227.737 62.1064 231.053 57.377 235.293 54.6045C239.533 51.832 245.051 50.4458 251.846 50.4458H256.005V63.6558H252.499C248.204 63.6558 244.969 64.5527 242.795 66.3467C240.675 68.0863 238.881 71.2936 237.413 75.9688C235.891 80.6982 234.097 84.3949 232.031 87.0586C229.965 89.668 227.682 91.6794 225.182 93.0928L262.284 141.529ZM347.088 96.0283C347.088 111.358 343.392 123.209 335.999 131.581C328.605 139.898 318.766 144.057 306.48 144.057C293.814 144.057 283.838 139.763 276.554 131.173C269.324 122.53 265.708 110.815 265.708 96.0283C265.708 80.807 269.432 68.9832 276.88 60.5571C284.382 52.131 294.249 47.918 306.48 47.918C318.766 47.918 328.605 52.131 335.999 60.5571C343.392 68.9289 347.088 80.7526 347.088 96.0283ZM331.269 96.0283C331.269 84.2318 329.122 75.4795 324.827 69.7715C320.533 64.0091 314.417 61.1279 306.48 61.1279C298.489 61.1279 292.319 64.0091 287.97 69.7715C283.675 75.4795 281.528 84.2318 281.528 96.0283C281.528 107.444 283.675 116.115 287.97 122.041C292.319 127.912 298.489 130.847 306.48 130.847C314.362 130.847 320.451 127.966 324.746 122.204C329.095 116.387 331.269 107.662 331.269 96.0283ZM433.361 141.529H418.031V63.3296H386.718C386.555 67.8416 386.392 72.1906 386.229 76.3765C386.066 80.508 385.903 84.259 385.74 87.6294C385.414 96.1642 384.843 103.313 384.027 109.075C383.266 114.838 382.288 119.458 381.092 122.938C379.896 126.525 378.564 129.325 377.096 131.336C375.683 133.348 374.079 135.169 372.285 136.8C370.437 138.431 368.453 139.654 366.333 140.469C364.212 141.285 361.82 141.692 359.157 141.692C358.287 141.692 357.173 141.665 355.813 141.611C354.454 141.556 353.503 141.529 352.959 141.529V128.156H353.775C354.155 128.156 354.536 128.183 354.917 128.238C355.351 128.292 355.841 128.319 356.384 128.319C357.689 128.319 358.966 128.129 360.217 127.749C361.467 127.368 362.582 126.661 363.56 125.628C366.278 122.965 368.262 118.317 369.513 111.685C370.763 104.998 371.66 95.675 372.204 83.7153C372.421 79.2576 372.611 73.9845 372.774 67.896C372.992 61.8075 373.182 55.9907 373.345 50.4458H433.361V141.529ZM513.518 63.9004H470.952V141.529H455.622V50.4458H513.518V63.9004ZM599.872 96.0283C599.872 111.358 596.175 123.209 588.782 131.581C581.389 139.898 571.549 144.057 559.263 144.057C546.597 144.057 536.621 139.763 529.337 131.173C522.107 122.53 518.492 110.815 518.492 96.0283C518.492 80.807 522.215 68.9832 529.663 60.5571C537.165 52.131 547.032 47.918 559.263 47.918C571.549 47.918 581.389 52.131 588.782 60.5571C596.175 68.9289 599.872 80.7526 599.872 96.0283ZM584.052 96.0283C584.052 84.2318 581.905 75.4795 577.61 69.7715C573.316 64.0091 567.2 61.1279 559.263 61.1279C551.272 61.1279 545.102 64.0091 540.753 69.7715C536.458 75.4795 534.311 84.2318 534.311 96.0283C534.311 107.444 536.458 116.115 540.753 122.041C545.102 127.912 551.272 130.847 559.263 130.847C567.146 130.847 573.234 127.966 577.529 122.204C581.878 116.387 584.052 107.662 584.052 96.0283ZM682.148 63.9004H651.162V141.529H635.832V63.9004H604.846V50.4458H682.148V63.9004ZM766.872 141.529H747.791L716.56 99.5347H708.895V141.529H693.564V50.4458H708.895V90.0757C712.863 90.0213 716.233 89.2059 719.006 87.6294C721.833 85.9985 724.225 82.8727 726.182 78.252C726.78 76.8929 727.432 75.3164 728.139 73.5225C728.9 71.7285 729.498 70.152 729.933 68.793C732.325 62.1064 735.641 57.377 739.881 54.6045C744.121 51.832 749.639 50.4458 756.434 50.4458H760.593V63.6558H757.086C752.792 63.6558 749.557 64.5527 747.383 66.3467C745.263 68.0863 743.469 71.2936 742.001 75.9688C740.479 80.6982 738.685 84.3949 736.619 87.0586C734.553 89.668 732.27 91.6794 729.77 93.0928L766.872 141.529ZM848.659 141.529H833.492V73.604L790.601 141.529H776.738V50.4458H791.905V117.311L834.308 50.4458H848.659V141.529Z" fill="#2D2D2D"/>
</g>
<defs>
<clipPath id="clip0_1661_9521">
<rect width="933" height="252" fill="white"/>
</clipPath>
</defs>
</svg>
