<svg width="128" height="39" viewBox="0 0 128 39" fill="none" xmlns="http://www.w3.org/2000/svg">
<path d="M118.486 0.556641H110.5C108.086 0.556641 106.229 1.2995 105.114 3.71378L89.8857 38.4424H100.657C100.657 38.4424 102.514 33.7995 102.886 32.6852C104 32.6852 114.586 32.6852 116.071 32.6852C116.443 33.9852 117.371 38.2566 117.371 38.2566H127.029L118.486 0.556641ZM105.857 24.8852C106.786 22.6566 109.943 14.2995 109.943 14.2995C109.943 14.4852 110.871 12.0709 111.243 10.7709L111.986 14.1138C111.986 14.1138 114.029 23.2138 114.4 25.0709H105.857V24.8852Z" fill="#3362AB"/>
<path d="M90.6282 26C90.6282 33.8 83.571 39 72.6139 39C67.971 39 63.5139 38.0714 61.0996 36.9571L62.5853 28.4143L63.8853 28.9714C67.2282 30.4571 69.4567 31.0143 73.5425 31.0143C76.5139 31.0143 79.671 29.9 79.671 27.3C79.671 25.6286 78.371 24.5143 74.2853 22.6571C70.3853 20.8 65.1853 17.8286 65.1853 12.4429C65.1853 5.01429 72.4282 0 82.6425 0C86.5425 0 89.8853 0.742857 91.9282 1.67143L90.4425 9.84286L89.6996 9.1C87.8425 8.35714 85.4282 7.61429 81.8996 7.61429C77.9996 7.8 76.1425 9.47143 76.1425 10.9571C76.1425 12.6286 78.371 13.9286 81.8996 15.6C87.8425 18.3857 90.6282 21.5429 90.6282 26Z" fill="#3362AB"/>
<path d="M0 0.927428L0.185714 0.18457H16.1571C18.3857 0.18457 20.0571 0.927427 20.6143 3.34171L24.1429 20.056C20.6143 11.1417 12.4429 3.89886 0 0.927428Z" fill="#F9B50B"/>
<path d="M46.6144 0.557785L30.4572 38.2578H19.5001L10.2144 6.68636C16.9001 10.9578 22.4715 17.6435 24.5144 22.2864L25.6286 26.1864L35.6572 0.37207H46.6144V0.557785Z" fill="#3362AB"/>
<path d="M50.8857 0.37207H61.1L54.6 38.2578H44.3857L50.8857 0.37207Z" fill="#3362AB"/>
</svg>
